{
  "openapi": "3.0.1",
  "info": {
    "title": "CMS API",
    "version": "v0"
  },
  "paths": {
    "/api/v0/Auth": {
      "post": {
        "tags": [
          "Auth"
        ],
        "operationId": "Login",
        "requestBody": {
          "content": {
            "application/json": {
              "schema": {
                "$ref": "#/components/schemas/Login"
              }
            },
            "text/json": {
              "schema": {
                "$ref": "#/components/schemas/Login"
              }
            },
            "application/*+json": {
              "schema": {
                "$ref": "#/components/schemas/Login"
              }
            }
          }
        },
        "responses": {
          "200": {
            "description": "Success",
            "content": {
              "text/plain": {
                "schema": {
                  "$ref": "#/components/schemas/LoginResult"
                }
              },
              "application/json": {
                "schema": {
                  "$ref": "#/components/schemas/LoginResult"
                }
              },
              "text/json": {
                "schema": {
                  "$ref": "#/components/schemas/LoginResult"
                }
              }
            }
          }
        }
      }
    },
    "/api/v0/Auth/refresh": {
      "post": {
        "tags": [
          "Auth"
        ],
        "operationId": "RefreshToken",
        "requestBody": {
          "content": {
            "application/json": {
              "schema": {
                "$ref": "#/components/schemas/RefreshToken"
              }
            },
            "text/json": {
              "schema": {
                "$ref": "#/components/schemas/RefreshToken"
              }
            },
            "application/*+json": {
              "schema": {
                "$ref": "#/components/schemas/RefreshToken"
              }
            }
          }
        },
        "responses": {
          "200": {
            "description": "Success",
            "content": {
              "text/plain": {
                "schema": {
                  "$ref": "#/components/schemas/LoginResult"
                }
              },
              "application/json": {
                "schema": {
                  "$ref": "#/components/schemas/LoginResult"
                }
              },
              "text/json": {
                "schema": {
                  "$ref": "#/components/schemas/LoginResult"
                }
              }
            }
          }
        }
      }
    },
    "/api/v0/JsonFile/auth": {
      "get": {
        "tags": [
          "JsonFile"
        ],
        "operationId": "GetJsonFile",
        "responses": {
          "200": {
            "description": "Success",
            "content": {
              "text/plain": {
                "schema": {
                  "type": "string"
                }
              },
              "application/json": {
                "schema": {
                  "type": "string"
                }
              },
              "text/json": {
                "schema": {
                  "type": "string"
                }
              }
            }
          }
        }
      }
    },
    "/api/v0/JsonFile": {
      "get": {
        "tags": [
          "JsonFile"
        ],
        "operationId": "GetJsonFileNotAuth",
        "responses": {
          "200": {
            "description": "Success",
            "content": {
              "text/plain": {
                "schema": {
                  "type": "string"
                }
              },
              "application/json": {
                "schema": {
                  "type": "string"
                }
              },
              "text/json": {
                "schema": {
                  "type": "string"
                }
              }
            }
          }
        }
      }
    },
    "/api/v0/usertype": {
      "get": {
        "tags": [
          "UserType"
        ],
        "operationId": "GetUserTypes",
        "responses": {
          "200": {
            "description": "Success",
            "content": {
              "text/plain": {
                "schema": {
                  "type": "array",
                  "items": {
                    "$ref": "#/components/schemas/UserTypeResult"
                  }
                }
              },
              "application/json": {
                "schema": {
                  "type": "array",
                  "items": {
                    "$ref": "#/components/schemas/UserTypeResult"
                  }
                }
              },
              "text/json": {
                "schema": {
                  "type": "array",
                  "items": {
                    "$ref": "#/components/schemas/UserTypeResult"
                  }
                }
              }
            }
          }
        }
      }
    },
    "/api/v0/usertype/{slug}": {
      "get": {
        "tags": [
          "UserType"
        ],
        "operationId": "GetUserType",
        "parameters": [
          {
            "name": "slug",
            "in": "path",
            "required": true,
            "schema": {
              "type": "string"
            }
          }
        ],
        "responses": {
          "200": {
            "description": "Success",
            "content": {
              "text/plain": {
                "schema": {
                  "$ref": "#/components/schemas/UserTypeDTO"
                }
              },
              "application/json": {
                "schema": {
                  "$ref": "#/components/schemas/UserTypeDTO"
                }
              },
              "text/json": {
                "schema": {
                  "$ref": "#/components/schemas/UserTypeDTO"
                }
              }
            }
          }
        }
      }
    }
  },
  "components": {
    "schemas": {
      "Field": {
        "required": [
          "name",
          "slug",
          "type"
        ],
        "type": "object",
        "properties": {
          "id": {
            "type": "string",
            "format": "uuid"
          },
          "name": {
            "minLength": 1,
            "type": "string"
          },
          "description": {
            "type": "string",
            "nullable": true
          },
          "slug": {
            "minLength": 1,
            "pattern": "^(?!.*\\b(integer|text|boolean|list|file)\\b)[a-zA-Z\\-_]*$",
            "type": "string"
          },
          "type": {
            "minLength": 1,
            "type": "string"
          },
          "isNullable": {
            "type": "boolean"
          },
          "value": {
            "nullable": true
          }
        },
        "additionalProperties": false
      },
      "Login": {
        "type": "object",
        "properties": {
          "email": {
            "type": "string",
            "nullable": true
          },
          "password": {
            "type": "string",
            "nullable": true
          }
        },
        "additionalProperties": false
      },
      "LoginResult": {
        "type": "object",
        "properties": {
          "accessToken": {
            "type": "string",
            "nullable": true
          },
          "refreshToken": {
            "type": "string",
            "nullable": true
          }
        },
        "additionalProperties": false
      },
      "RefreshToken": {
        "type": "object",
        "properties": {
          "username": {
            "type": "string",
            "nullable": true
          },
          "refreshToken": {
            "type": "string",
            "nullable": true
          }
        },
        "additionalProperties": false
      },
      "UserType": {
        "required": [
          "fields",
          "name",
          "slug"
        ],
        "type": "object",
        "properties": {
          "id": {
            "type": "string",
            "format": "uuid"
          },
          "name": {
            "minLength": 1,
            "type": "string"
          },
          "description": {
            "type": "string",
            "nullable": true
          },
          "slug": {
            "minLength": 1,
            "pattern": "^(?!.*\\b(integer|text|boolean|list|file)\\b)[a-zA-Z\\-_]*$",
            "type": "string"
          },
          "fields": {
            "type": "array",
            "items": {
              "$ref": "#/components/schemas/Field"
            }
          }
        },
        "additionalProperties": false
      },
      "UserTypeDTO": {
        "type": "object",
        "properties": {
          "profiles": {
            "type": "array",
            "items": {
              "type": "object",
              "additionalProperties": { }
            },
            "nullable": true
          }
        },
        "additionalProperties": false
      },
      "UserTypeResult": {
        "required": [
          "id",
          "scheme"
        ],
        "type": "object",
        "properties": {
          "id": {
            "type": "string",
            "format": "uuid"
          },
          "scheme": {
            "$ref": "#/components/schemas/UserType"
          },
          "instancesRows": {
            "type": "array",
            "items": {
              "type": "object",
              "additionalProperties": { }
            },
            "nullable": true
          }
        },
        "additionalProperties": false
      }
    }
  }
}